"name1","name2","data_table","column_index","value","description"
"$Price/Unit","costar_price_per_unit","COSTARSNAPSHOTS","1","field_description",""
"% 1-Bed","costar_pct_1_bed","COSTARSNAPSHOTS","2","field_description",""
"% 2-Bed","costar_pct_2_bed","COSTARSNAPSHOTS","3","field_description",""
"% 3-Bed","costar_pct_3_bed","COSTARSNAPSHOTS","4","field_description",""
"% 4-Bed","costar_pct_4_bed","COSTARSNAPSHOTS","5","field_description",""
"% Studios","costar_pct_studios","COSTARSNAPSHOTS","6","field_description",""
"Affordable Type","costar_affordable_type","COSTARSNAPSHOTS","7","field_description",""
"Amenities","costar_amenities","COSTARSNAPSHOTS","8","field_description",""
"Anchor GLA","costar_anchor_gla","COSTARSNAPSHOTS","9","field_description",""
"Anchor Tenants","costar_anchor_tenants","COSTARSNAPSHOTS","10","field_description",""
"Architect Name","costar_architect_name","COSTARSNAPSHOTS","11","field_description",""
"Average Weighted Rent","costar_average_weighted_rent","COSTARSNAPSHOTS","12","field_description",""
"Avg Asking/SF","costar_avg_asking_per_sf","COSTARSNAPSHOTS","13","field_description",""
"Avg Asking/Unit","costar_avg_asking_per_unit","COSTARSNAPSHOTS","14","field_description",""
"Avg Concessions %","costar_avg_concessions_pct","COSTARSNAPSHOTS","15","field_description",""
"Avg Effective/SF","costar_avg_effective_per_sf","COSTARSNAPSHOTS","16","field_description",""
"Avg Effective/Unit","costar_avg_effective_per_unit","COSTARSNAPSHOTS","17","field_description",""
"Avg Rent-Direct (Industrial)","costar_avg_rent_direct_industrial","COSTARSNAPSHOTS","18","field_description",""
"Avg Rent-Direct (Office)","costar_avg_rent_direct_office","COSTARSNAPSHOTS","19","field_description",""
"Avg Rent-Direct (Retail)","costar_avg_rent_direct_retail","COSTARSNAPSHOTS","20","field_description",""
"Avg Rent-Sublet (Industrial)","costar_avg_rent_sublet_industrial","COSTARSNAPSHOTS","21","field_description",""
"Avg Rent-Sublet (Office)","costar_avg_rent_sublet_office","COSTARSNAPSHOTS","22","field_description",""
"Avg Rent-Sublet (Retail)","costar_avg_rent_sublet_retail","COSTARSNAPSHOTS","23","field_description",""
"Avg Unit SF","costar_avg_unit_sf","COSTARSNAPSHOTS","24","field_description",""
"Building Address","costar_building_address","COSTARSNAPSHOTS","25","field_description",""
"Building Class","costar_building_class","COSTARSNAPSHOTS","26","field_description",""
"Building Location","costar_building_location","COSTARSNAPSHOTS","27","field_description",""
"Building Name","costar_building_name","COSTARSNAPSHOTS","28","field_description",""
"Building Operating Expenses","costar_building_operating_expenses","COSTARSNAPSHOTS","29","field_description",""
"Building Park","costar_building_park","COSTARSNAPSHOTS","30","field_description",""
"Building Status","costar_building_status","COSTARSNAPSHOTS","31","field_description",""
"Building Tax Expenses","costar_building_tax_expenses","COSTARSNAPSHOTS","32","field_description",""
"Cap Rate","costar_cap_rate","COSTARSNAPSHOTS","33","field_description",""
"Ceiling Height Range","costar_ceiling_height_range","COSTARSNAPSHOTS","34","field_description",""
"City","costar_city","COSTARSNAPSHOTS","35","field_description",""
"Closest Transit Stop","costar_closest_transit_stop","COSTARSNAPSHOTS","36","field_description",""
"Closest Transit Stop Dist (mi)","costar_closest_transit_stop_dist_mi","COSTARSNAPSHOTS","37","field_description",""
"Closest Transit Stop Walk Time (min)","costar_closest_transit_stop_walk_time_min","COSTARSNAPSHOTS","38","field_description",""
"Column Spacing","costar_column_spacing","COSTARSNAPSHOTS","39","field_description",""
"Construction Material","costar_construction_material","COSTARSNAPSHOTS","40","field_description",""
"Core Factor","costar_core_factor","COSTARSNAPSHOTS","41","field_description",""
"County Name","costar_county_name","COSTARSNAPSHOTS","42","field_description",""
"Cross Street","costar_cross_street","COSTARSNAPSHOTS","43","field_description",""
"Days On Market","costar_days_on_market","COSTARSNAPSHOTS","44","field_description",""
"Developer Name","costar_developer_name","COSTARSNAPSHOTS","45","field_description",""
"Direct Available Space","costar_direct_available_space","COSTARSNAPSHOTS","46","field_description",""
"Direct Services","costar_direct_services","COSTARSNAPSHOTS","47","field_description",""
"Direct Vacant Space","costar_direct_vacant_space","COSTARSNAPSHOTS","48","field_description",""
"Drive Ins","costar_drive_ins","COSTARSNAPSHOTS","49","field_description",""
"Energy Star","costar_energy_star","COSTARSNAPSHOTS","50","field_description",""
"Exp Year","costar_exp_year","COSTARSNAPSHOTS","51","field_description",""
"Features","costar_features","COSTARSNAPSHOTS","52","field_description",""
"For Sale Price","costar_for_sale_price","COSTARSNAPSHOTS","53","field_description",""
"For Sale Status","costar_for_sale_status","COSTARSNAPSHOTS","54","field_description",""
"Four Bedroom Asking Rent/SF","costar_four_bedroom_asking_rent_per_sf","COSTARSNAPSHOTS","55","field_description",""
"Four Bedroom Asking Rent/Unit","costar_four_bedroom_asking_rent_per_unit","COSTARSNAPSHOTS","56","field_description",""
"Four Bedroom Avg SF","costar_four_bedroom_avg_sf","COSTARSNAPSHOTS","57","field_description",""
"Four Bedroom Concessions %","costar_four_bedroom_concessions_pct","COSTARSNAPSHOTS","58","field_description",""
"Four Bedroom Effective Rent/SF","costar_four_bedroom_effective_rent_per_sf","COSTARSNAPSHOTS","59","field_description",""
"Four Bedroom Effective Rent/Unit","costar_four_bedroom_effective_rent_per_unit","COSTARSNAPSHOTS","60","field_description",""
"Four Bedroom Vacancy %","costar_four_bedroom_vacancy_pct","COSTARSNAPSHOTS","61","field_description",""
"Four Bedroom Vacant Units","costar_four_bedroom_vacant_units","COSTARSNAPSHOTS","62","field_description",""
"Gas","costar_gas","COSTARSNAPSHOTS","63","field_description",""
"Heating","costar_heating","COSTARSNAPSHOTS","64","field_description",""
"LEED Certified","costar_leed_certified","COSTARSNAPSHOTS","65","field_description",""
"Land Area (AC)","costar_land_area_ac","COSTARSNAPSHOTS","66","field_description",""
"Last Sale Date","costar_last_sale_date","COSTARSNAPSHOTS","67","field_description",""
"Last Sale Price","costar_last_sale_price","COSTARSNAPSHOTS","68","field_description",""
"Latitude","costar_latitude","COSTARSNAPSHOTS","69","field_description",""
"Leasing Company Address","costar_leasing_company_address","COSTARSNAPSHOTS","70","field_description",""
"Leasing Company City State Zip","costar_leasing_company_city_state_zip","COSTARSNAPSHOTS","71","field_description",""
"Leasing Company Contact","costar_leasing_company_contact","COSTARSNAPSHOTS","72","field_description",""
"Leasing Company Fax","costar_leasing_company_fax","COSTARSNAPSHOTS","73","field_description",""
"Leasing Company Name","costar_leasing_company_name","COSTARSNAPSHOTS","74","field_description",""
"Leasing Company Phone","costar_leasing_company_phone","COSTARSNAPSHOTS","75","field_description",""
"Longitude","costar_longitude","COSTARSNAPSHOTS","76","field_description",""
"Market Name","costar_market_name","COSTARSNAPSHOTS","77","field_description",""
"Market Segment","costar_market_segment","COSTARSNAPSHOTS","78","field_description",""
"Max Building Contiguous Space","costar_max_building_contiguous_space","COSTARSNAPSHOTS","79","field_description",""
"Max Floor Contiguous Space","costar_max_floor_contiguous_space","COSTARSNAPSHOTS","80","field_description",""
"Number Of 1 Bedrooms","costar_number_of_1_bedrooms","COSTARSNAPSHOTS","81","field_description",""
"Number Of 2 Bedrooms","costar_number_of_2_bedrooms","COSTARSNAPSHOTS","82","field_description",""
"Number Of 3 Bedrooms","costar_number_of_3_bedrooms","COSTARSNAPSHOTS","83","field_description",""
"Number Of 4 Bedrooms","costar_number_of_4_bedrooms","COSTARSNAPSHOTS","84","field_description",""
"Number Of Cranes","costar_number_of_cranes","COSTARSNAPSHOTS","85","field_description",""
"Number Of Elevators","costar_number_of_elevators","COSTARSNAPSHOTS","86","field_description",""
"Number Of Loading Docks","costar_number_of_loading_docks","COSTARSNAPSHOTS","87","field_description",""
"Number Of Parking Spaces","costar_number_of_parking_spaces","COSTARSNAPSHOTS","88","field_description",""
"Number Of Stories","costar_number_of_stories","COSTARSNAPSHOTS","89","field_description",""
"Number Of Studios","costar_number_of_studios","COSTARSNAPSHOTS","90","field_description",""
"Number Of Units","costar_number_of_units","COSTARSNAPSHOTS","91","field_description",""
"Office Space","costar_office_space","COSTARSNAPSHOTS","92","field_description",""
"One Bedroom Asking Rent/SF","costar_one_bedroom_asking_rent_per_sf","COSTARSNAPSHOTS","93","field_description",""
"One Bedroom Asking Rent/Unit","costar_one_bedroom_asking_rent_per_unit","COSTARSNAPSHOTS","94","field_description",""
"One Bedroom Avg SF","costar_one_bedroom_avg_sf","COSTARSNAPSHOTS","95","field_description",""
"One Bedroom Concessions %","costar_one_bedroom_concessions_pct","COSTARSNAPSHOTS","96","field_description",""
"One Bedroom Effective Rent/SF","costar_one_bedroom_effective_rent_per_sf","COSTARSNAPSHOTS","97","field_description",""
"One Bedroom Effective Rent/Unit","costar_one_bedroom_effective_rent_per_unit","COSTARSNAPSHOTS","98","field_description",""
"One Bedroom Vacancy %","costar_one_bedroom_vacancy_pct","COSTARSNAPSHOTS","99","field_description",""
"One Bedroom Vacant Units","costar_one_bedroom_vacant_units","COSTARSNAPSHOTS","100","field_description",""
"Ops Expense","costar_ops_expense","COSTARSNAPSHOTS","101","field_description",""
"Ops Expense Per SF","costar_ops_expense_per_sf","COSTARSNAPSHOTS","102","field_description",""
"Owner Address","costar_owner_address","COSTARSNAPSHOTS","103","field_description",""
"Owner City State Zip","costar_owner_city_state_zip","COSTARSNAPSHOTS","104","field_description",""
"Owner Contact","costar_owner_contact","COSTARSNAPSHOTS","105","field_description",""
"Owner Name","costar_owner_name","COSTARSNAPSHOTS","106","field_description",""
"Owner Phone","costar_owner_phone","COSTARSNAPSHOTS","107","field_description",""
"Parcel Number 1(Min)","costar_parcel_number_1min","COSTARSNAPSHOTS","108","field_description",""
"Parcel Number 2(Max)","costar_parcel_number_2max","COSTARSNAPSHOTS","109","field_description",""
"Parking Ratio","costar_parking_ratio","COSTARSNAPSHOTS","110","field_description",""
"Parking Spaces/Unit","costar_parking_spaces_per_unit","COSTARSNAPSHOTS","111","field_description",""
"Percent Leased","costar_percent_leased","COSTARSNAPSHOTS","112","field_description",""
"Power","costar_power","COSTARSNAPSHOTS","113","field_description",""
"Primary Agent Name","costar_primary_agent_name","COSTARSNAPSHOTS","114","field_description",""
"Property Manager Address","costar_property_manager_address","COSTARSNAPSHOTS","115","field_description",""
"Property Manager City State Zip","costar_property_manager_city_state_zip","COSTARSNAPSHOTS","116","field_description",""
"Property Manager Contact","costar_property_manager_contact","COSTARSNAPSHOTS","117","field_description",""
"Property Manager Name","costar_property_manager_name","COSTARSNAPSHOTS","118","field_description",""
"Property Manager Phone","costar_property_manager_phone","COSTARSNAPSHOTS","119","field_description",""
"PropertyID","costar_propertyid","COSTARSNAPSHOTS","120","field_description",""
"PropertyType","costar_propertytype","COSTARSNAPSHOTS","121","field_description",""
"Rail Lines","costar_rail_lines","COSTARSNAPSHOTS","122","field_description",""
"Rent Type","costar_rent_type","COSTARSNAPSHOTS","123","field_description",""
"Rentable Building Area","costar_rentable_building_area","COSTARSNAPSHOTS","124","field_description",""
"Secondary Type","costar_secondary_type","COSTARSNAPSHOTS","125","field_description",""
"Serial","costar_serial","COSTARSNAPSHOTS","126","field_description",""
"Services","costar_services","COSTARSNAPSHOTS","127","field_description",""
"Sewer","costar_sewer","COSTARSNAPSHOTS","128","field_description",""
"Smallest Available Space","costar_smallest_available_space","COSTARSNAPSHOTS","129","field_description",""
"Sprinklers","costar_sprinklers","COSTARSNAPSHOTS","130","field_description",""
"Star Rating","costar_star_rating","COSTARSNAPSHOTS","131","field_description",""
"State","costar_state","COSTARSNAPSHOTS","132","field_description",""
"Studio Asking Rent/SF","costar_studio_asking_rent_per_sf","COSTARSNAPSHOTS","133","field_description",""
"Studio Asking Rent/Unit","costar_studio_asking_rent_per_unit","COSTARSNAPSHOTS","134","field_description",""
"Studio Avg SF","costar_studio_avg_sf","COSTARSNAPSHOTS","135","field_description",""
"Studio Concessions %","costar_studio_concessions_pct","COSTARSNAPSHOTS","136","field_description",""
"Studio Effective Rent/SF","costar_studio_effective_rent_per_sf","COSTARSNAPSHOTS","137","field_description",""
"Studio Effective Rent/Unit","costar_studio_effective_rent_per_unit","COSTARSNAPSHOTS","138","field_description",""
"Studio Vacancy %","costar_studio_vacancy_pct","COSTARSNAPSHOTS","139","field_description",""
"Studio Vacant Units","costar_studio_vacant_units","COSTARSNAPSHOTS","140","field_description",""
"Style","costar_style","COSTARSNAPSHOTS","141","field_description",""
"Sublet Available Space","costar_sublet_available_space","COSTARSNAPSHOTS","142","field_description",""
"Sublet Services","costar_sublet_services","COSTARSNAPSHOTS","143","field_description",""
"Sublet Vacant Space","costar_sublet_vacant_space","COSTARSNAPSHOTS","144","field_description",""
"Submarket Cluster","costar_submarket_cluster","COSTARSNAPSHOTS","145","field_description",""
"Submarket Name","costar_submarket_name","COSTARSNAPSHOTS","146","field_description",""
"Tax Year","costar_tax_year","COSTARSNAPSHOTS","147","field_description",""
"Taxes Per SF","costar_taxes_per_sf","COSTARSNAPSHOTS","148","field_description",""
"Taxes Total","costar_taxes_total","COSTARSNAPSHOTS","149","field_description",""
"Three Bedroom Asking Rent/SF","costar_three_bedroom_asking_rent_per_sf","COSTARSNAPSHOTS","150","field_description",""
"Three Bedroom Asking Rent/Unit","costar_three_bedroom_asking_rent_per_unit","COSTARSNAPSHOTS","151","field_description",""
"Three Bedroom Avg SF","costar_three_bedroom_avg_sf","COSTARSNAPSHOTS","152","field_description",""
"Three Bedroom Concessions %","costar_three_bedroom_concessions_pct","COSTARSNAPSHOTS","153","field_description",""
"Three Bedroom Effective Rent/SF","costar_three_bedroom_effective_rent_per_sf","COSTARSNAPSHOTS","154","field_description",""
"Three Bedroom Effective Rent/Unit","costar_three_bedroom_effective_rent_per_unit","COSTARSNAPSHOTS","155","field_description",""
"Three Bedroom Vacancy %","costar_three_bedroom_vacancy_pct","COSTARSNAPSHOTS","156","field_description",""
"Three Bedroom Vacant Units","costar_three_bedroom_vacant_units","COSTARSNAPSHOTS","157","field_description",""
"Total Available Space (SF)","costar_total_available_space_sf","COSTARSNAPSHOTS","158","field_description",""
"Total Buildings","costar_total_buildings","COSTARSNAPSHOTS","159","field_description",""
"Total New Space (SF)","costar_total_new_space_sf","COSTARSNAPSHOTS","160","field_description",""
"Total Relet Space (SF)","costar_total_relet_space_sf","COSTARSNAPSHOTS","161","field_description",""
"Total Sublet Space (SF)","costar_total_sublet_space_sf","COSTARSNAPSHOTS","162","field_description",""
"Total Vacant Avail Relet Space (SF)","costar_total_vacant_avail_relet_space_sf","COSTARSNAPSHOTS","163","field_description",""
"Total Vacant Avail Sublet Space (SF)","costar_total_vacant_avail_sublet_space_sf","COSTARSNAPSHOTS","164","field_description",""
"Total Vacant Available","costar_total_vacant_available","COSTARSNAPSHOTS","165","field_description",""
"Two Bedroom Asking Rent/SF","costar_two_bedroom_asking_rent_per_sf","COSTARSNAPSHOTS","166","field_description",""
"Two Bedroom Asking Rent/Unit","costar_two_bedroom_asking_rent_per_unit","COSTARSNAPSHOTS","167","field_description",""
"Two Bedroom Avg SF","costar_two_bedroom_avg_sf","COSTARSNAPSHOTS","168","field_description",""
"Two Bedroom Concessions %","costar_two_bedroom_concessions_pct","COSTARSNAPSHOTS","169","field_description",""
"Two Bedroom Effective Rent/SF","costar_two_bedroom_effective_rent_per_sf","COSTARSNAPSHOTS","170","field_description",""
"Two Bedroom Effective Rent/Unit","costar_two_bedroom_effective_rent_per_unit","COSTARSNAPSHOTS","171","field_description",""
"Two Bedroom Vacancy %","costar_two_bedroom_vacancy_pct","COSTARSNAPSHOTS","172","field_description",""
"Two Bedroom Vacant Units","costar_two_bedroom_vacant_units","COSTARSNAPSHOTS","173","field_description",""
"Typical Floor Size","costar_typical_floor_size","COSTARSNAPSHOTS","174","field_description",""
"Vacancy %","costar_vacancy_pct","COSTARSNAPSHOTS","175","field_description",""
"Water","costar_water","COSTARSNAPSHOTS","176","field_description",""
"Year Built","costar_year_built","COSTARSNAPSHOTS","177","field_description",""
"Year Renovated","costar_year_renovated","COSTARSNAPSHOTS","178","field_description",""
"Zip","costar_zip","COSTARSNAPSHOTS","179","field_description",""
"Zoning","costar_zoning","COSTARSNAPSHOTS","180","field_description",""
"","PIN","CCAOCHARS","1","field_description",""
"","TYPE_RESD","CCAOCHARS","NA","field_description",""
"","","","","",""
"","APTS","CCAOCHARS","NA","field_description",""
"","EXT_WALL","CCAOCHARS","NA","field_description",""
"","ROOF_CNST","CCAOCHARS","NA","field_description",""
"","ROOMS","CCAOCHARS","NA","field_description",""
"","BEDS","CCAOCHARS","NA","field_description",""
"","BSMT","CCAOCHARS","NA","field_description",""
"","BSMT_FIN","CCAOCHARS","NA","field_description",""
"","HEAR","CCAOCHARS","NA","field_description",""
"","OHEAT","CCAOCHARS","NA","field_description",""
"","AIR","CCAOCHARS","NA","field_description",""
"","FRPL","CCAOCHARS","NA","field_description",""
"","ATTIC_TYPE","CCAOCHARS","NA","field_description",""
"","ATTIC_FNSH","CCAOCHARS","NA","field_description",""
"","FBATH","CCAOCHARS","NA","field_description",""
"","HBATH","CCAOCHARS","NA","field_description",""
"","TP_PLAN","CCAOCHARS","NA","field_description",""
"","TP_DSGN","CCAOCHARS","NA","field_description",""
"","CNST_QLTY","CCAOCHARS","NA","field_description",""
"","RENNOVATION","CCAOCHARS","NA","field_description",""
"","SITE","CCAOCHARS","NA","field_description",""
"","GAR1_SIZE","CCAOCHARS","NA","field_description",""
"","GAR1_CNST","CCAOCHARS","NA","field_description",""
"","GAR1_ATT","CCAOCHARS","NA","field_description",""
"","GAR1_AREA","CCAOCHARS","NA","field_description",""
"","GAR2_SIZE","CCAOCHARS","NA","field_description",""
"","GAR2_CNST","CCAOCHARS","NA","field_description",""
"","GAR2_ATT","CCAOCHARS","NA","field_description",""
"","GAR2_AREA","CCAOCHARS","NA","field_description",""
"","PORCH","CCAOCHARS","NA","field_description",""
"","OT_IMPR","CCAOCHARS","NA","field_description",""
"","BLDG_SF","CCAOCHARS","NA","field_description",""
"","REPAIR_CND","CCAOCHARS","NA","field_description",""
"","CLASS","CCAOCHARS","NA","field_description",""
"","","","","",""
"","HE_SF","CCAOCHARS","NA","field_description",""
"","NBHD","CCAOCHARS","NA","field_description",""
"","MULTI_IND","CCAOCHARS","NA","field_description",""
"","MULTI_CODE","CCAOCHARS","NA","field_description",""
"","VOLUME","CCAOCHARS","NA","field_description",""
"","NCU","CCAOCHARS","NA","field_description",""
"","AGE","CCAOCHARS","NA","value_1","Naturally coded"
"","AGE","CCAOCHARS","NA","field_description","Age of the structure, measured from the original construction date. Not to be confused with effective age."
"","USE","CCAOCHARS","NA","field_description","Designates single family or multi-family structure. A single family structure is one in which the entire building is a single continuous dwelling unit. A multi-family structure is one in which the structure is divided among two or more dwelling units. In addition, a multi-family structure in one owned by a single property owners and occupied by at least one renter."
"","USE","CCAOCHARS","3","1","Single Family"
"","USE","CCAOCHARS","3","2","Multi-Family"
"","","","","",""
"","PIN","PARCELS_SPATIAL","1","field_description","parcel pin"
"","multiple_geographies","PARCELS_SPATIAL","2","field_description","identifier for pins with multiple polygons"
"","PIN999","PARCELS_SPATIAL","3","field_description","problematic pin identifier"
"","point_parcel","PARCELS_SPATIAL","4","field_description","parcel with area of less than 0.5 sqft"
"","centroid_x","PARCELS_SPATIAL","5","field_description","longitude of parcel centroid"
"","centroid_y","PARCELS_SPATIAL","6","field_description","latitude of parcel centroid"
"","primary_polygon","PARCELS_SPATIAL","7","field_description","identifier that allows usage of first polygon when pins have multiple polygons"
"","TRACTCE","PARCELS_SPATIAL","8","field_description","census tract associated with parcel centroid"
